A Glimpse at the Diversity of Peru's Endemic Plants • ppendemic
…
Count records by family:

ppendemic_tab16 |>
  dplyr::count(family, sort = TRUE)
#> # A tibble: 165 × 2
#>    family              n
#>    <chr>           <int>
#>  1 Orchidaceae      1168
#>  2 Asteraceae        883
#>  3 Piperaceae        680
#>  4 Fabaceae          334
#>  5 Bromeliaceae      319
#>  6 Solanaceae        314
#>  7 Melastomataceae   263
#>  8 Araceae           214
#>  9 Cactaceae         188
#> 10 Rubiaceae         176
#> # ℹ 155 more rows
…
